﻿Reference #;Active (0/1);Name *;Categories (x,y,z...);Image URLs (x,y,z...);Image alt texts (x,y,z...);Delete existing images (0 = No, 1 = Yes)
XT01BK10000Z0;1;FALDA TWEED BOTONES;NEW IN, FALDAS;"https://pruebas.truccoshop.com/fotos/XT01BK10000Z0_1.jpg;https://pruebas.truccoshop.com/fotos/XT01BK10000Z0_2.jpg;https://pruebas.truccoshop.com/fotos/XT01BK10000Z0_3.jpg;https://pruebas.truccoshop.com/fotos/XT01BK10000Z0_4.jpg;https://pruebas.truccoshop.com/fotos/XT01BK10000Z0_5.jpg;https://pruebas.truccoshop.com/fotos/XT01BK10000Z0_6.jpg;https://pruebas.truccoshop.com/fotos/XT01BK10000Z0_7.jpg;https://pruebas.truccoshop.com/fotos/XT01BK10000Z0_8.jpg;https://pruebas.truccoshop.com/fotos/XT01BK10000Z0_9.jpg";FALDA TWEED BOTONES;1
XT01CF10000V1;1;FALDA CORTA VOLANTES;NEW IN, FALDAS;"https://pruebas.truccoshop.com/fotos/XT01CF10000V1_1.jpg;https://pruebas.truccoshop.com/fotos/XT01CF10000V1_2.jpg;https://pruebas.truccoshop.com/fotos/XT01CF10000V1_3.jpg;https://pruebas.truccoshop.com/fotos/XT01CF10000V1_4.jpg;https://pruebas.truccoshop.com/fotos/XT01CF10000V1_5.jpg;https://pruebas.truccoshop.com/fotos/XT01CF10000V1_6.jpg;https://pruebas.truccoshop.com/fotos/XT01CF10000V1_7.jpg;https://pruebas.truccoshop.com/fotos/XT01CF10000V1_8.jpg;https://pruebas.truccoshop.com/fotos/XT01CF10000V1_9.jpg";FALDA CORTA VOLANTES;1
XT01CF10000Z0;1;FALDA CORTA VOLANTES;NEW IN, FALDAS;"https://pruebas.truccoshop.com/fotos/XT01CF10000Z0_1.jpg;https://pruebas.truccoshop.com/fotos/XT01CF10000Z0_2.jpg;https://pruebas.truccoshop.com/fotos/XT01CF10000Z0_3.jpg;https://pruebas.truccoshop.com/fotos/XT01CF10000Z0_4.jpg;https://pruebas.truccoshop.com/fotos/XT01CF10000Z0_5.jpg;https://pruebas.truccoshop.com/fotos/XT01CF10000Z0_6.jpg;https://pruebas.truccoshop.com/fotos/XT01CF10000Z0_7.jpg;https://pruebas.truccoshop.com/fotos/XT01CF10000Z0_8.jpg;https://pruebas.truccoshop.com/fotos/XT01CF10000Z0_9.jpg";FALDA CORTA VOLANTES;1
XT02CI10000A3;1;PANTALÓN RECTO JACQUARD;NEW IN, PANTALONES;"https://pruebas.truccoshop.com/fotos/XT02CI10000A3_1.jpg;https://pruebas.truccoshop.com/fotos/XT02CI10000A3_2.jpg;https://pruebas.truccoshop.com/fotos/XT02CI10000A3_3.jpg;https://pruebas.truccoshop.com/fotos/XT02CI10000A3_4.jpg;https://pruebas.truccoshop.com/fotos/XT02CI10000A3_5.jpg;https://pruebas.truccoshop.com/fotos/XT02CI10000A3_6.jpg;https://pruebas.truccoshop.com/fotos/XT02CI10000A3_7.jpg;https://pruebas.truccoshop.com/fotos/XT02CI10000A3_8.jpg;https://pruebas.truccoshop.com/fotos/XT02CI10000A3_9.jpg";PANTALÓN RECTO JACQUARD;1
XT02CI10000G1;1;PANTALÓN RECTO JACQUARD;NEW IN, PANTALONES;"https://pruebas.truccoshop.com/fotos/XT02CI10000G1_1.jpg;https://pruebas.truccoshop.com/fotos/XT02CI10000G1_2.jpg;https://pruebas.truccoshop.com/fotos/XT02CI10000G1_3.jpg;https://pruebas.truccoshop.com/fotos/XT02CI10000G1_4.jpg;https://pruebas.truccoshop.com/fotos/XT02CI10000G1_5.jpg;https://pruebas.truccoshop.com/fotos/XT02CI10000G1_6.jpg;https://pruebas.truccoshop.com/fotos/XT02CI10000G1_7.jpg;https://pruebas.truccoshop.com/fotos/XT02CI10000G1_8.jpg;https://pruebas.truccoshop.com/fotos/XT02CI10000G1_9.jpg";PANTALÓN RECTO JACQUARD;1
XT02CI10000R2;1;PANTALÓN RECTO JACQUARD;NEW IN, PANTALONES;"https://pruebas.truccoshop.com/fotos/XT02CI10000R2_1.jpg;https://pruebas.truccoshop.com/fotos/XT02CI10000R2_2.jpg;https://pruebas.truccoshop.com/fotos/XT02CI10000R2_3.jpg;https://pruebas.truccoshop.com/fotos/XT02CI10000R2_4.jpg;https://pruebas.truccoshop.com/fotos/XT02CI10000R2_5.jpg;https://pruebas.truccoshop.com/fotos/XT02CI10000R2_6.jpg;https://pruebas.truccoshop.com/fotos/XT02CI10000R2_7.jpg;https://pruebas.truccoshop.com/fotos/XT02CI10000R2_8.jpg;https://pruebas.truccoshop.com/fotos/XT02CI10000R2_9.jpg";PANTALÓN RECTO JACQUARD;1
XT02CT10000A2;1;PANTALÓN RECTO PINZAS;NEW IN, PANTALONES;"https://pruebas.truccoshop.com/fotos/XT02CT10000A2_1.jpg;https://pruebas.truccoshop.com/fotos/XT02CT10000A2_2.jpg;https://pruebas.truccoshop.com/fotos/XT02CT10000A2_3.jpg;https://pruebas.truccoshop.com/fotos/XT02CT10000A2_4.jpg;https://pruebas.truccoshop.com/fotos/XT02CT10000A2_5.jpg;https://pruebas.truccoshop.com/fotos/XT02CT10000A2_6.jpg;https://pruebas.truccoshop.com/fotos/XT02CT10000A2_7.jpg;https://pruebas.truccoshop.com/fotos/XT02CT10000A2_8.jpg;https://pruebas.truccoshop.com/fotos/XT02CT10000A2_9.jpg";PANTALÓN RECTO PINZAS;1
XT02DL10000A3;1;PANTALÓN ESTAMPADO FLORES;NEW IN, PANTALONES;"https://pruebas.truccoshop.com/fotos/XT02DL10000A3_1.jpg;https://pruebas.truccoshop.com/fotos/XT02DL10000A3_2.jpg;https://pruebas.truccoshop.com/fotos/XT02DL10000A3_3.jpg;https://pruebas.truccoshop.com/fotos/XT02DL10000A3_4.jpg;https://pruebas.truccoshop.com/fotos/XT02DL10000A3_5.jpg;https://pruebas.truccoshop.com/fotos/XT02DL10000A3_6.jpg;https://pruebas.truccoshop.com/fotos/XT02DL10000A3_7.jpg;https://pruebas.truccoshop.com/fotos/XT02DL10000A3_8.jpg;https://pruebas.truccoshop.com/fotos/XT02DL10000A3_9.jpg";PANTALÓN ESTAMPADO FLORES;1
XT02DN10000V2;1;PANTALÓN FLUIDO ESTAMPADO;NEW IN, PANTALONES;"https://pruebas.truccoshop.com/fotos/XT02DN10000V2_1.jpg;https://pruebas.truccoshop.com/fotos/XT02DN10000V2_2.jpg;https://pruebas.truccoshop.com/fotos/XT02DN10000V2_3.jpg;https://pruebas.truccoshop.com/fotos/XT02DN10000V2_4.jpg;https://pruebas.truccoshop.com/fotos/XT02DN10000V2_5.jpg;https://pruebas.truccoshop.com/fotos/XT02DN10000V2_6.jpg;https://pruebas.truccoshop.com/fotos/XT02DN10000V2_7.jpg;https://pruebas.truccoshop.com/fotos/XT02DN10000V2_8.jpg;https://pruebas.truccoshop.com/fotos/XT02DN10000V2_9.jpg";PANTALÓN FLUIDO ESTAMPADO;1
XT03DO10000B0;1;CAMISA VOLANTES EN MANGAS;NEW IN, CAMISAS;"https://pruebas.truccoshop.com/fotos/XT03DO10000B0_1.jpg;https://pruebas.truccoshop.com/fotos/XT03DO10000B0_2.jpg;https://pruebas.truccoshop.com/fotos/XT03DO10000B0_3.jpg;https://pruebas.truccoshop.com/fotos/XT03DO10000B0_4.jpg;https://pruebas.truccoshop.com/fotos/XT03DO10000B0_5.jpg;https://pruebas.truccoshop.com/fotos/XT03DO10000B0_6.jpg;https://pruebas.truccoshop.com/fotos/XT03DO10000B0_7.jpg;https://pruebas.truccoshop.com/fotos/XT03DO10000B0_8.jpg;https://pruebas.truccoshop.com/fotos/XT03DO10000B0_9.jpg";CAMISA VOLANTES EN MANGAS;1
XT03DO10000N0;1;CAMISA VOLANTES EN MANGAS;NEW IN, CAMISAS;"https://pruebas.truccoshop.com/fotos/XT03DO10000N0_1.jpg;https://pruebas.truccoshop.com/fotos/XT03DO10000N0_2.jpg;https://pruebas.truccoshop.com/fotos/XT03DO10000N0_3.jpg;https://pruebas.truccoshop.com/fotos/XT03DO10000N0_4.jpg;https://pruebas.truccoshop.com/fotos/XT03DO10000N0_5.jpg;https://pruebas.truccoshop.com/fotos/XT03DO10000N0_6.jpg;https://pruebas.truccoshop.com/fotos/XT03DO10000N0_7.jpg;https://pruebas.truccoshop.com/fotos/XT03DO10000N0_8.jpg;https://pruebas.truccoshop.com/fotos/XT03DO10000N0_9.jpg";CAMISA VOLANTES EN MANGAS;1
XT03DO10000S2;1;CAMISA VOLANTES EN MANGAS;NEW IN, CAMISAS;"https://pruebas.truccoshop.com/fotos/XT03DO10000S2_1.jpg;https://pruebas.truccoshop.com/fotos/XT03DO10000S2_2.jpg;https://pruebas.truccoshop.com/fotos/XT03DO10000S2_3.jpg;https://pruebas.truccoshop.com/fotos/XT03DO10000S2_4.jpg;https://pruebas.truccoshop.com/fotos/XT03DO10000S2_5.jpg;https://pruebas.truccoshop.com/fotos/XT03DO10000S2_6.jpg;https://pruebas.truccoshop.com/fotos/XT03DO10000S2_7.jpg;https://pruebas.truccoshop.com/fotos/XT03DO10000S2_8.jpg;https://pruebas.truccoshop.com/fotos/XT03DO10000S2_9.jpg";CAMISA VOLANTES EN MANGAS;1
XT03FS10000V1;1;TOP FLOR LIBERTY;NEW IN, CAMISAS;"https://pruebas.truccoshop.com/fotos/XT03FS10000V1_1.jpg;https://pruebas.truccoshop.com/fotos/XT03FS10000V1_2.jpg;https://pruebas.truccoshop.com/fotos/XT03FS10000V1_3.jpg;https://pruebas.truccoshop.com/fotos/XT03FS10000V1_4.jpg;https://pruebas.truccoshop.com/fotos/XT03FS10000V1_5.jpg;https://pruebas.truccoshop.com/fotos/XT03FS10000V1_6.jpg;https://pruebas.truccoshop.com/fotos/XT03FS10000V1_7.jpg;https://pruebas.truccoshop.com/fotos/XT03FS10000V1_8.jpg;https://pruebas.truccoshop.com/fotos/XT03FS10000V1_9.jpg";TOP FLOR LIBERTY;1
XT03FS10000Z0;1;TOP FLOR LIBERTY;NEW IN, CAMISAS;"https://pruebas.truccoshop.com/fotos/XT03FS10000Z0_1.jpg;https://pruebas.truccoshop.com/fotos/XT03FS10000Z0_2.jpg;https://pruebas.truccoshop.com/fotos/XT03FS10000Z0_3.jpg;https://pruebas.truccoshop.com/fotos/XT03FS10000Z0_4.jpg;https://pruebas.truccoshop.com/fotos/XT03FS10000Z0_5.jpg;https://pruebas.truccoshop.com/fotos/XT03FS10000Z0_6.jpg;https://pruebas.truccoshop.com/fotos/XT03FS10000Z0_7.jpg;https://pruebas.truccoshop.com/fotos/XT03FS10000Z0_8.jpg;https://pruebas.truccoshop.com/fotos/XT03FS10000Z0_9.jpg";TOP FLOR LIBERTY;1
XT04BK10000G1;1;CHAQUETA ESTAMPADO FLORES;NEW IN,CHAQUETAS;"https://pruebas.truccoshop.com/fotos/XT04BK10000G1_1.jpg;https://pruebas.truccoshop.com/fotos/XT04BK10000G1_2.jpg;https://pruebas.truccoshop.com/fotos/XT04BK10000G1_3.jpg;https://pruebas.truccoshop.com/fotos/XT04BK10000G1_4.jpg;https://pruebas.truccoshop.com/fotos/XT04BK10000G1_5.jpg;https://pruebas.truccoshop.com/fotos/XT04BK10000G1_6.jpg;https://pruebas.truccoshop.com/fotos/XT04BK10000G1_7.jpg;https://pruebas.truccoshop.com/fotos/XT04BK10000G1_8.jpg;https://pruebas.truccoshop.com/fotos/XT04BK10000G1_9.jpg";CHAQUETA ESTAMPADO FLORES;1
XT23AP10000Z0;1;CHAQUETA TWEET ESTAMPADA;NEW IN,CHAQUETAS;"https://pruebas.truccoshop.com/fotos/XT23AP10000Z0_1.jpg;https://pruebas.truccoshop.com/fotos/XT23AP10000Z0_2.jpg;https://pruebas.truccoshop.com/fotos/XT23AP10000Z0_3.jpg;https://pruebas.truccoshop.com/fotos/XT23AP10000Z0_4.jpg;https://pruebas.truccoshop.com/fotos/XT23AP10000Z0_5.jpg;https://pruebas.truccoshop.com/fotos/XT23AP10000Z0_6.jpg;https://pruebas.truccoshop.com/fotos/XT23AP10000Z0_7.jpg;https://pruebas.truccoshop.com/fotos/XT23AP10000Z0_8.jpg;https://pruebas.truccoshop.com/fotos/XT23AP10000Z0_9.jpg";CHAQUETA TWEET ESTAMPADA;1
XT23AQ10000B1;1;CHAQUETA TEJIDO LISO;NEW IN,CHAQUETAS;"https://pruebas.truccoshop.com/fotos/XT23AQ10000B1_1.jpg;https://pruebas.truccoshop.com/fotos/XT23AQ10000B1_2.jpg;https://pruebas.truccoshop.com/fotos/XT23AQ10000B1_3.jpg;https://pruebas.truccoshop.com/fotos/XT23AQ10000B1_4.jpg;https://pruebas.truccoshop.com/fotos/XT23AQ10000B1_5.jpg;https://pruebas.truccoshop.com/fotos/XT23AQ10000B1_6.jpg;https://pruebas.truccoshop.com/fotos/XT23AQ10000B1_7.jpg;https://pruebas.truccoshop.com/fotos/XT23AQ10000B1_8.jpg;https://pruebas.truccoshop.com/fotos/XT23AQ10000B1_9.jpg";CHAQUETA TEJIDO LISO;1
XT23AV10000R2;1;CHAQUETA SAHARIANA;NEW IN,CHAQUETAS;"https://pruebas.truccoshop.com/fotos/XT23AV10000R2_1.jpg;https://pruebas.truccoshop.com/fotos/XT23AV10000R2_2.jpg;https://pruebas.truccoshop.com/fotos/XT23AV10000R2_3.jpg;https://pruebas.truccoshop.com/fotos/XT23AV10000R2_4.jpg;https://pruebas.truccoshop.com/fotos/XT23AV10000R2_5.jpg;https://pruebas.truccoshop.com/fotos/XT23AV10000R2_6.jpg;https://pruebas.truccoshop.com/fotos/XT23AV10000R2_7.jpg;https://pruebas.truccoshop.com/fotos/XT23AV10000R2_8.jpg;https://pruebas.truccoshop.com/fotos/XT23AV10000R2_9.jpg";CHAQUETA SAHARIANA;1
XT23AX10000G2;1;CHAQUETA SAHARIANA;NEW IN,CHAQUETAS;"https://pruebas.truccoshop.com/fotos/XT23AX10000G2_1.jpg;https://pruebas.truccoshop.com/fotos/XT23AX10000G2_2.jpg;https://pruebas.truccoshop.com/fotos/XT23AX10000G2_3.jpg;https://pruebas.truccoshop.com/fotos/XT23AX10000G2_4.jpg;https://pruebas.truccoshop.com/fotos/XT23AX10000G2_5.jpg;https://pruebas.truccoshop.com/fotos/XT23AX10000G2_6.jpg;https://pruebas.truccoshop.com/fotos/XT23AX10000G2_7.jpg;https://pruebas.truccoshop.com/fotos/XT23AX10000G2_8.jpg;https://pruebas.truccoshop.com/fotos/XT23AX10000G2_9.jpg";CHAQUETA SAHARIANA;1
XT23CN10000A2;1;CHAQUETA LARGA JAQUARD;NEW IN,CHAQUETAS;"https://pruebas.truccoshop.com/fotos/XT23CN10000A2_1.jpg;https://pruebas.truccoshop.com/fotos/XT23CN10000A2_2.jpg;https://pruebas.truccoshop.com/fotos/XT23CN10000A2_3.jpg;https://pruebas.truccoshop.com/fotos/XT23CN10000A2_4.jpg;https://pruebas.truccoshop.com/fotos/XT23CN10000A2_5.jpg;https://pruebas.truccoshop.com/fotos/XT23CN10000A2_6.jpg;https://pruebas.truccoshop.com/fotos/XT23CN10000A2_7.jpg;https://pruebas.truccoshop.com/fotos/XT23CN10000A2_8.jpg;https://pruebas.truccoshop.com/fotos/XT23CN10000A2_9.jpg";CHAQUETA LARGA JAQUARD;1
XT02CM10000B1;1;PANTALÓN RECTO PINZAS;NEW IN, PANTALONES;"https://pruebas.truccoshop.com/fotos/XT02CM10000B1_1.jpg;https://pruebas.truccoshop.com/fotos/XT02CM10000B1_2.jpg;https://pruebas.truccoshop.com/fotos/XT02CM10000B1_3.jpg;https://pruebas.truccoshop.com/fotos/XT02CM10000B1_4.jpg;https://pruebas.truccoshop.com/fotos/XT02CM10000B1_5.jpg;https://pruebas.truccoshop.com/fotos/XT02CM10000B1_6.jpg;https://pruebas.truccoshop.com/fotos/XT02CM10000B1_7.jpg;https://pruebas.truccoshop.com/fotos/XT02CM10000B1_8.jpg;https://pruebas.truccoshop.com/fotos/XT02CM10000B1_9.jpg";PANTALÓN RECTO PINZAS;1
XT02CM10000G2;1;PANTALÓN RECTO PINZAS;NEW IN, PANTALONES;"https://pruebas.truccoshop.com/fotos/XT02CM10000G2_1.jpg;https://pruebas.truccoshop.com/fotos/XT02CM10000G2_2.jpg;https://pruebas.truccoshop.com/fotos/XT02CM10000G2_3.jpg;https://pruebas.truccoshop.com/fotos/XT02CM10000G2_4.jpg;https://pruebas.truccoshop.com/fotos/XT02CM10000G2_5.jpg;https://pruebas.truccoshop.com/fotos/XT02CM10000G2_6.jpg;https://pruebas.truccoshop.com/fotos/XT02CM10000G2_7.jpg;https://pruebas.truccoshop.com/fotos/XT02CM10000G2_8.jpg;https://pruebas.truccoshop.com/fotos/XT02CM10000G2_9.jpg";PANTALÓN RECTO PINZAS;1
XT02CM10000Y2;1;PANTALÓN RECTO PINZAS;NEW IN, PANTALONES;"https://pruebas.truccoshop.com/fotos/XT02CM10000Y2_1.jpg;https://pruebas.truccoshop.com/fotos/XT02CM10000Y2_2.jpg;https://pruebas.truccoshop.com/fotos/XT02CM10000Y2_3.jpg;https://pruebas.truccoshop.com/fotos/XT02CM10000Y2_4.jpg;https://pruebas.truccoshop.com/fotos/XT02CM10000Y2_5.jpg;https://pruebas.truccoshop.com/fotos/XT02CM10000Y2_6.jpg;https://pruebas.truccoshop.com/fotos/XT02CM10000Y2_7.jpg;https://pruebas.truccoshop.com/fotos/XT02CM10000Y2_8.jpg;https://pruebas.truccoshop.com/fotos/XT02CM10000Y2_9.jpg";PANTALÓN RECTO PINZAS;1
ZT02BY10000N0;1;PANTALÓN FLUIDO LISO;NEW IN, PANTALONES;"https://pruebas.truccoshop.com/fotos/ZT02BY10000N0_1.jpg;https://pruebas.truccoshop.com/fotos/ZT02BY10000N0_2.jpg;https://pruebas.truccoshop.com/fotos/ZT02BY10000N0_3.jpg;https://pruebas.truccoshop.com/fotos/ZT02BY10000N0_4.jpg;https://pruebas.truccoshop.com/fotos/ZT02BY10000N0_5.jpg;https://pruebas.truccoshop.com/fotos/ZT02BY10000N0_6.jpg;https://pruebas.truccoshop.com/fotos/ZT02BY10000N0_7.jpg;https://pruebas.truccoshop.com/fotos/ZT02BY10000N0_8.jpg;https://pruebas.truccoshop.com/fotos/ZT02BY10000N0_9.jpg";PANTALÓN FLUIDO LISO;1
ZT03BS10000B1;1;CAMISA CUELLO MAO;NEW IN, CAMISAS;"https://pruebas.truccoshop.com/fotos/ZT03BS10000B1_1.jpg;https://pruebas.truccoshop.com/fotos/ZT03BS10000B1_2.jpg;https://pruebas.truccoshop.com/fotos/ZT03BS10000B1_3.jpg;https://pruebas.truccoshop.com/fotos/ZT03BS10000B1_4.jpg;https://pruebas.truccoshop.com/fotos/ZT03BS10000B1_5.jpg;https://pruebas.truccoshop.com/fotos/ZT03BS10000B1_6.jpg;https://pruebas.truccoshop.com/fotos/ZT03BS10000B1_7.jpg;https://pruebas.truccoshop.com/fotos/ZT03BS10000B1_8.jpg;https://pruebas.truccoshop.com/fotos/ZT03BS10000B1_9.jpg";CAMISA CUELLO MAO;1
ZT03BT10000Z0;1;CAMISA BOTONES ESTAMPADA;NEW IN, CAMISAS;"https://pruebas.truccoshop.com/fotos/ZT03BT10000Z0_1.jpg;https://pruebas.truccoshop.com/fotos/ZT03BT10000Z0_2.jpg;https://pruebas.truccoshop.com/fotos/ZT03BT10000Z0_3.jpg;https://pruebas.truccoshop.com/fotos/ZT03BT10000Z0_4.jpg;https://pruebas.truccoshop.com/fotos/ZT03BT10000Z0_5.jpg;https://pruebas.truccoshop.com/fotos/ZT03BT10000Z0_6.jpg;https://pruebas.truccoshop.com/fotos/ZT03BT10000Z0_7.jpg;https://pruebas.truccoshop.com/fotos/ZT03BT10000Z0_8.jpg;https://pruebas.truccoshop.com/fotos/ZT03BT10000Z0_9.jpg";CAMISA BOTONES ESTAMPADA;1
ZT03CD10000A2;1;CAMISA OVERSIZE;NEW IN, CAMISAS;"https://pruebas.truccoshop.com/fotos/ZT03CD10000A2_1.jpg;https://pruebas.truccoshop.com/fotos/ZT03CD10000A2_2.jpg;https://pruebas.truccoshop.com/fotos/ZT03CD10000A2_3.jpg;https://pruebas.truccoshop.com/fotos/ZT03CD10000A2_4.jpg;https://pruebas.truccoshop.com/fotos/ZT03CD10000A2_5.jpg;https://pruebas.truccoshop.com/fotos/ZT03CD10000A2_6.jpg;https://pruebas.truccoshop.com/fotos/ZT03CD10000A2_7.jpg;https://pruebas.truccoshop.com/fotos/ZT03CD10000A2_8.jpg;https://pruebas.truccoshop.com/fotos/ZT03CD10000A2_9.jpg";CAMISA OVERSIZE;1
ZT04AN10000A1;1;CHAQUETA TEJIDO LISO;NEW IN,CHAQUETAS;"https://pruebas.truccoshop.com/fotos/ZT04AN10000A1_1.jpg;https://pruebas.truccoshop.com/fotos/ZT04AN10000A1_2.jpg;https://pruebas.truccoshop.com/fotos/ZT04AN10000A1_3.jpg;https://pruebas.truccoshop.com/fotos/ZT04AN10000A1_4.jpg;https://pruebas.truccoshop.com/fotos/ZT04AN10000A1_5.jpg;https://pruebas.truccoshop.com/fotos/ZT04AN10000A1_6.jpg;https://pruebas.truccoshop.com/fotos/ZT04AN10000A1_7.jpg;https://pruebas.truccoshop.com/fotos/ZT04AN10000A1_8.jpg;https://pruebas.truccoshop.com/fotos/ZT04AN10000A1_9.jpg";CHAQUETA TEJIDO LISO;1
ZT20BY10000Z0;1;VESTIDO MIDI BOHO;NEW IN,VESTIDOS;"https://pruebas.truccoshop.com/fotos/ZT20BY10000Z0_1.jpg;https://pruebas.truccoshop.com/fotos/ZT20BY10000Z0_2.jpg;https://pruebas.truccoshop.com/fotos/ZT20BY10000Z0_3.jpg;https://pruebas.truccoshop.com/fotos/ZT20BY10000Z0_4.jpg;https://pruebas.truccoshop.com/fotos/ZT20BY10000Z0_5.jpg;https://pruebas.truccoshop.com/fotos/ZT20BY10000Z0_6.jpg;https://pruebas.truccoshop.com/fotos/ZT20BY10000Z0_7.jpg;https://pruebas.truccoshop.com/fotos/ZT20BY10000Z0_8.jpg;https://pruebas.truccoshop.com/fotos/ZT20BY10000Z0_9.jpg";VESTIDO MIDI BOHO;1
ZT23AE10000G2;1;ABRIGO OVERSIZE;NEW IN,ABRIGOS;"https://pruebas.truccoshop.com/fotos/ZT23AE10000G2_1.jpg;https://pruebas.truccoshop.com/fotos/ZT23AE10000G2_2.jpg;https://pruebas.truccoshop.com/fotos/ZT23AE10000G2_3.jpg;https://pruebas.truccoshop.com/fotos/ZT23AE10000G2_4.jpg;https://pruebas.truccoshop.com/fotos/ZT23AE10000G2_5.jpg;https://pruebas.truccoshop.com/fotos/ZT23AE10000G2_6.jpg;https://pruebas.truccoshop.com/fotos/ZT23AE10000G2_7.jpg;https://pruebas.truccoshop.com/fotos/ZT23AE10000G2_8.jpg;https://pruebas.truccoshop.com/fotos/ZT23AE10000G2_9.jpg";ABRIGO OVERSIZE;1
XT01BC10000B1;1;FALDA MIDI DE PUNTO;NEW IN, FALDAS;"https://pruebas.truccoshop.com/fotos/XT01BC10000B1_1.jpg;https://pruebas.truccoshop.com/fotos/XT01BC10000B1_2.jpg;https://pruebas.truccoshop.com/fotos/XT01BC10000B1_3.jpg;https://pruebas.truccoshop.com/fotos/XT01BC10000B1_4.jpg;https://pruebas.truccoshop.com/fotos/XT01BC10000B1_5.jpg;https://pruebas.truccoshop.com/fotos/XT01BC10000B1_6.jpg;https://pruebas.truccoshop.com/fotos/XT01BC10000B1_7.jpg;https://pruebas.truccoshop.com/fotos/XT01BC10000B1_8.jpg;https://pruebas.truccoshop.com/fotos/XT01BC10000B1_9.jpg";FALDA MIDI DE PUNTO;1
XT02CC10000B1;1;PANTALÓN DE 5 BOLSILLOS;NEW IN, PANTALONES;"https://pruebas.truccoshop.com/fotos/XT02CC10000B1_1.jpg;https://pruebas.truccoshop.com/fotos/XT02CC10000B1_2.jpg;https://pruebas.truccoshop.com/fotos/XT02CC10000B1_3.jpg;https://pruebas.truccoshop.com/fotos/XT02CC10000B1_4.jpg;https://pruebas.truccoshop.com/fotos/XT02CC10000B1_5.jpg;https://pruebas.truccoshop.com/fotos/XT02CC10000B1_6.jpg;https://pruebas.truccoshop.com/fotos/XT02CC10000B1_7.jpg;https://pruebas.truccoshop.com/fotos/XT02CC10000B1_8.jpg;https://pruebas.truccoshop.com/fotos/XT02CC10000B1_9.jpg";PANTALÓN DE 5 BOLSILLOS;1
XT02CC10000G2;1;PANTALÓN DE 5 BOLSILLOS;NEW IN, PANTALONES;"https://pruebas.truccoshop.com/fotos/XT02CC10000G2_1.jpg;https://pruebas.truccoshop.com/fotos/XT02CC10000G2_2.jpg;https://pruebas.truccoshop.com/fotos/XT02CC10000G2_3.jpg;https://pruebas.truccoshop.com/fotos/XT02CC10000G2_4.jpg;https://pruebas.truccoshop.com/fotos/XT02CC10000G2_5.jpg;https://pruebas.truccoshop.com/fotos/XT02CC10000G2_6.jpg;https://pruebas.truccoshop.com/fotos/XT02CC10000G2_7.jpg;https://pruebas.truccoshop.com/fotos/XT02CC10000G2_8.jpg;https://pruebas.truccoshop.com/fotos/XT02CC10000G2_9.jpg";PANTALÓN DE 5 BOLSILLOS;1
XT02ER10000V1;1;PANTALÓN DE PINZAS CON CINTURÓN;NEW IN, PANTALONES;"https://pruebas.truccoshop.com/fotos/XT02ER10000V1_1.jpg;https://pruebas.truccoshop.com/fotos/XT02ER10000V1_2.jpg;https://pruebas.truccoshop.com/fotos/XT02ER10000V1_3.jpg;https://pruebas.truccoshop.com/fotos/XT02ER10000V1_4.jpg;https://pruebas.truccoshop.com/fotos/XT02ER10000V1_5.jpg;https://pruebas.truccoshop.com/fotos/XT02ER10000V1_6.jpg;https://pruebas.truccoshop.com/fotos/XT02ER10000V1_7.jpg;https://pruebas.truccoshop.com/fotos/XT02ER10000V1_8.jpg;https://pruebas.truccoshop.com/fotos/XT02ER10000V1_9.jpg";PANTALÓN DE PINZAS CON CINTURÓN;1
XT04AV10000S1;1;CHAQUETA JACQUARD;NEW IN,CHAQUETAS;"https://pruebas.truccoshop.com/fotos/XT04AV10000S1_1.jpg;https://pruebas.truccoshop.com/fotos/XT04AV10000S1_2.jpg;https://pruebas.truccoshop.com/fotos/XT04AV10000S1_3.jpg;https://pruebas.truccoshop.com/fotos/XT04AV10000S1_4.jpg;https://pruebas.truccoshop.com/fotos/XT04AV10000S1_5.jpg;https://pruebas.truccoshop.com/fotos/XT04AV10000S1_6.jpg;https://pruebas.truccoshop.com/fotos/XT04AV10000S1_7.jpg;https://pruebas.truccoshop.com/fotos/XT04AV10000S1_8.jpg;https://pruebas.truccoshop.com/fotos/XT04AV10000S1_9.jpg";CHAQUETA JACQUARD;1
XT15CY10000A3;1;CAMISETA DETALLE CON BOTONES;NEW IN,CAMISETAS;"https://pruebas.truccoshop.com/fotos/XT15CY10000A3_1.jpg;https://pruebas.truccoshop.com/fotos/XT15CY10000A3_2.jpg;https://pruebas.truccoshop.com/fotos/XT15CY10000A3_3.jpg;https://pruebas.truccoshop.com/fotos/XT15CY10000A3_4.jpg;https://pruebas.truccoshop.com/fotos/XT15CY10000A3_5.jpg;https://pruebas.truccoshop.com/fotos/XT15CY10000A3_6.jpg;https://pruebas.truccoshop.com/fotos/XT15CY10000A3_7.jpg;https://pruebas.truccoshop.com/fotos/XT15CY10000A3_8.jpg;https://pruebas.truccoshop.com/fotos/XT15CY10000A3_9.jpg";CAMISETA DETALLE CON BOTONES;1
XT15CY10000G1;1;CAMISETA DETALLE CON BOTONES;NEW IN,CAMISETAS;"https://pruebas.truccoshop.com/fotos/XT15CY10000G1_1.jpg;https://pruebas.truccoshop.com/fotos/XT15CY10000G1_2.jpg;https://pruebas.truccoshop.com/fotos/XT15CY10000G1_3.jpg;https://pruebas.truccoshop.com/fotos/XT15CY10000G1_4.jpg;https://pruebas.truccoshop.com/fotos/XT15CY10000G1_5.jpg;https://pruebas.truccoshop.com/fotos/XT15CY10000G1_6.jpg;https://pruebas.truccoshop.com/fotos/XT15CY10000G1_7.jpg;https://pruebas.truccoshop.com/fotos/XT15CY10000G1_8.jpg;https://pruebas.truccoshop.com/fotos/XT15CY10000G1_9.jpg";CAMISETA DETALLE CON BOTONES;1
XT15CY10000Y2;1;CAMISETA DETALLE CON BOTONES;NEW IN,CAMISETAS;"https://pruebas.truccoshop.com/fotos/XT15CY10000Y2_1.jpg;https://pruebas.truccoshop.com/fotos/XT15CY10000Y2_2.jpg;https://pruebas.truccoshop.com/fotos/XT15CY10000Y2_3.jpg;https://pruebas.truccoshop.com/fotos/XT15CY10000Y2_4.jpg;https://pruebas.truccoshop.com/fotos/XT15CY10000Y2_5.jpg;https://pruebas.truccoshop.com/fotos/XT15CY10000Y2_6.jpg;https://pruebas.truccoshop.com/fotos/XT15CY10000Y2_7.jpg;https://pruebas.truccoshop.com/fotos/XT15CY10000Y2_8.jpg;https://pruebas.truccoshop.com/fotos/XT15CY10000Y2_9.jpg";CAMISETA DETALLE CON BOTONES;1
XT16AV10000N0;1;JERSEY SIN MANGAS ;NEW IN,Jerseys;"https://pruebas.truccoshop.com/fotos/XT16AV10000N0_1.jpg;https://pruebas.truccoshop.com/fotos/XT16AV10000N0_2.jpg;https://pruebas.truccoshop.com/fotos/XT16AV10000N0_3.jpg;https://pruebas.truccoshop.com/fotos/XT16AV10000N0_4.jpg;https://pruebas.truccoshop.com/fotos/XT16AV10000N0_5.jpg;https://pruebas.truccoshop.com/fotos/XT16AV10000N0_6.jpg;https://pruebas.truccoshop.com/fotos/XT16AV10000N0_7.jpg;https://pruebas.truccoshop.com/fotos/XT16AV10000N0_8.jpg;https://pruebas.truccoshop.com/fotos/XT16AV10000N0_9.jpg";JERSEY SIN MANGAS ;1
XT16AX10000B1;1;JERSEY MANGA CORTA;NEW IN,Jerseys;"https://pruebas.truccoshop.com/fotos/XT16AX10000B1_1.jpg;https://pruebas.truccoshop.com/fotos/XT16AX10000B1_2.jpg;https://pruebas.truccoshop.com/fotos/XT16AX10000B1_3.jpg;https://pruebas.truccoshop.com/fotos/XT16AX10000B1_4.jpg;https://pruebas.truccoshop.com/fotos/XT16AX10000B1_5.jpg;https://pruebas.truccoshop.com/fotos/XT16AX10000B1_6.jpg;https://pruebas.truccoshop.com/fotos/XT16AX10000B1_7.jpg;https://pruebas.truccoshop.com/fotos/XT16AX10000B1_8.jpg;https://pruebas.truccoshop.com/fotos/XT16AX10000B1_9.jpg";JERSEY MANGA CORTA;1
XT16BK10000N0;1;JERSEY MANGA MURCIÉLAGO;NEW IN,Jerseys;"https://pruebas.truccoshop.com/fotos/XT16BK10000N0_1.jpg;https://pruebas.truccoshop.com/fotos/XT16BK10000N0_2.jpg;https://pruebas.truccoshop.com/fotos/XT16BK10000N0_3.jpg;https://pruebas.truccoshop.com/fotos/XT16BK10000N0_4.jpg;https://pruebas.truccoshop.com/fotos/XT16BK10000N0_5.jpg;https://pruebas.truccoshop.com/fotos/XT16BK10000N0_6.jpg;https://pruebas.truccoshop.com/fotos/XT16BK10000N0_7.jpg;https://pruebas.truccoshop.com/fotos/XT16BK10000N0_8.jpg;https://pruebas.truccoshop.com/fotos/XT16BK10000N0_9.jpg";JERSEY MANGA MURCIÉLAGO;1
XT16BL10000B1;1;JERSEY LAZADA;NEW IN,Jerseys;"https://pruebas.truccoshop.com/fotos/XT16BL10000B1_1.jpg;https://pruebas.truccoshop.com/fotos/XT16BL10000B1_2.jpg;https://pruebas.truccoshop.com/fotos/XT16BL10000B1_3.jpg;https://pruebas.truccoshop.com/fotos/XT16BL10000B1_4.jpg;https://pruebas.truccoshop.com/fotos/XT16BL10000B1_5.jpg;https://pruebas.truccoshop.com/fotos/XT16BL10000B1_6.jpg;https://pruebas.truccoshop.com/fotos/XT16BL10000B1_7.jpg;https://pruebas.truccoshop.com/fotos/XT16BL10000B1_8.jpg;https://pruebas.truccoshop.com/fotos/XT16BL10000B1_9.jpg";JERSEY LAZADA;1
XT16BV10000Y3;1;JERSEY JACQUARD DE PUNTO;NEW IN,Jerseys;"https://pruebas.truccoshop.com/fotos/XT16BV10000Y3_1.jpg;https://pruebas.truccoshop.com/fotos/XT16BV10000Y3_2.jpg;https://pruebas.truccoshop.com/fotos/XT16BV10000Y3_3.jpg;https://pruebas.truccoshop.com/fotos/XT16BV10000Y3_4.jpg;https://pruebas.truccoshop.com/fotos/XT16BV10000Y3_5.jpg;https://pruebas.truccoshop.com/fotos/XT16BV10000Y3_6.jpg;https://pruebas.truccoshop.com/fotos/XT16BV10000Y3_7.jpg;https://pruebas.truccoshop.com/fotos/XT16BV10000Y3_8.jpg;https://pruebas.truccoshop.com/fotos/XT16BV10000Y3_9.jpg";JERSEY JACQUARD DE PUNTO;1
XT16CA10000B1;1;JERSEY BICOLOR;NEW IN,Jerseys;"https://pruebas.truccoshop.com/fotos/XT16CA10000B1_1.jpg;https://pruebas.truccoshop.com/fotos/XT16CA10000B1_2.jpg;https://pruebas.truccoshop.com/fotos/XT16CA10000B1_3.jpg;https://pruebas.truccoshop.com/fotos/XT16CA10000B1_4.jpg;https://pruebas.truccoshop.com/fotos/XT16CA10000B1_5.jpg;https://pruebas.truccoshop.com/fotos/XT16CA10000B1_6.jpg;https://pruebas.truccoshop.com/fotos/XT16CA10000B1_7.jpg;https://pruebas.truccoshop.com/fotos/XT16CA10000B1_8.jpg;https://pruebas.truccoshop.com/fotos/XT16CA10000B1_9.jpg";JERSEY BICOLOR;1
XT16CB10000B1;1;JERSEY SIN MANGAS ;NEW IN,Jerseys;"https://pruebas.truccoshop.com/fotos/XT16CB10000B1_1.jpg;https://pruebas.truccoshop.com/fotos/XT16CB10000B1_2.jpg;https://pruebas.truccoshop.com/fotos/XT16CB10000B1_3.jpg;https://pruebas.truccoshop.com/fotos/XT16CB10000B1_4.jpg;https://pruebas.truccoshop.com/fotos/XT16CB10000B1_5.jpg;https://pruebas.truccoshop.com/fotos/XT16CB10000B1_6.jpg;https://pruebas.truccoshop.com/fotos/XT16CB10000B1_7.jpg;https://pruebas.truccoshop.com/fotos/XT16CB10000B1_8.jpg;https://pruebas.truccoshop.com/fotos/XT16CB10000B1_9.jpg";JERSEY SIN MANGAS ;1
XT16CN10000Z0;1;JERSEY JACQUARD ;NEW IN,Jerseys;"https://pruebas.truccoshop.com/fotos/XT16CN10000Z0_1.jpg;https://pruebas.truccoshop.com/fotos/XT16CN10000Z0_2.jpg;https://pruebas.truccoshop.com/fotos/XT16CN10000Z0_3.jpg;https://pruebas.truccoshop.com/fotos/XT16CN10000Z0_4.jpg;https://pruebas.truccoshop.com/fotos/XT16CN10000Z0_5.jpg;https://pruebas.truccoshop.com/fotos/XT16CN10000Z0_6.jpg;https://pruebas.truccoshop.com/fotos/XT16CN10000Z0_7.jpg;https://pruebas.truccoshop.com/fotos/XT16CN10000Z0_8.jpg;https://pruebas.truccoshop.com/fotos/XT16CN10000Z0_9.jpg";JERSEY JACQUARD ;1
XT17AR10000N0;1;CHAQUETA CUELLO CAJA;NEW IN,CHAQUETAS;"https://pruebas.truccoshop.com/fotos/XT17AR10000N0_1.jpg;https://pruebas.truccoshop.com/fotos/XT17AR10000N0_2.jpg;https://pruebas.truccoshop.com/fotos/XT17AR10000N0_3.jpg;https://pruebas.truccoshop.com/fotos/XT17AR10000N0_4.jpg;https://pruebas.truccoshop.com/fotos/XT17AR10000N0_5.jpg;https://pruebas.truccoshop.com/fotos/XT17AR10000N0_6.jpg;https://pruebas.truccoshop.com/fotos/XT17AR10000N0_7.jpg;https://pruebas.truccoshop.com/fotos/XT17AR10000N0_8.jpg;https://pruebas.truccoshop.com/fotos/XT17AR10000N0_9.jpg";CHAQUETA CUELLO CAJA;1
XT17BD10000A3;1;CHAQUETA CALADA;NEW IN,CHAQUETAS;"https://pruebas.truccoshop.com/fotos/XT17BD10000A3_1.jpg;https://pruebas.truccoshop.com/fotos/XT17BD10000A3_2.jpg;https://pruebas.truccoshop.com/fotos/XT17BD10000A3_3.jpg;https://pruebas.truccoshop.com/fotos/XT17BD10000A3_4.jpg;https://pruebas.truccoshop.com/fotos/XT17BD10000A3_5.jpg;https://pruebas.truccoshop.com/fotos/XT17BD10000A3_6.jpg;https://pruebas.truccoshop.com/fotos/XT17BD10000A3_7.jpg;https://pruebas.truccoshop.com/fotos/XT17BD10000A3_8.jpg;https://pruebas.truccoshop.com/fotos/XT17BD10000A3_9.jpg";CHAQUETA CALADA;1
XT20EE10000N0;1;MONO CROPPED ESTAMPADO;NEW IN,MONOS;"https://pruebas.truccoshop.com/fotos/XT20EE10000N0_1.jpg;https://pruebas.truccoshop.com/fotos/XT20EE10000N0_2.jpg;https://pruebas.truccoshop.com/fotos/XT20EE10000N0_3.jpg;https://pruebas.truccoshop.com/fotos/XT20EE10000N0_4.jpg;https://pruebas.truccoshop.com/fotos/XT20EE10000N0_5.jpg;https://pruebas.truccoshop.com/fotos/XT20EE10000N0_6.jpg;https://pruebas.truccoshop.com/fotos/XT20EE10000N0_7.jpg;https://pruebas.truccoshop.com/fotos/XT20EE10000N0_8.jpg;https://pruebas.truccoshop.com/fotos/XT20EE10000N0_9.jpg";MONO CROPPED ESTAMPADO;1
XT20FK10000B0;1;VESTIDO DENIM;NEW IN,VESTIDOS;"https://pruebas.truccoshop.com/fotos/XT20FK10000B0_1.jpg;https://pruebas.truccoshop.com/fotos/XT20FK10000B0_2.jpg;https://pruebas.truccoshop.com/fotos/XT20FK10000B0_3.jpg;https://pruebas.truccoshop.com/fotos/XT20FK10000B0_4.jpg;https://pruebas.truccoshop.com/fotos/XT20FK10000B0_5.jpg;https://pruebas.truccoshop.com/fotos/XT20FK10000B0_6.jpg;https://pruebas.truccoshop.com/fotos/XT20FK10000B0_7.jpg;https://pruebas.truccoshop.com/fotos/XT20FK10000B0_8.jpg;https://pruebas.truccoshop.com/fotos/XT20FK10000B0_9.jpg";VESTIDO DENIM;1
ZT01AK10000N0;1;FALDA DE PUNTO GEOMÉTRICA;NEW IN, FALDAS;"https://pruebas.truccoshop.com/fotos/ZT01AK10000N0_1.jpg;https://pruebas.truccoshop.com/fotos/ZT01AK10000N0_2.jpg;https://pruebas.truccoshop.com/fotos/ZT01AK10000N0_3.jpg;https://pruebas.truccoshop.com/fotos/ZT01AK10000N0_4.jpg;https://pruebas.truccoshop.com/fotos/ZT01AK10000N0_5.jpg;https://pruebas.truccoshop.com/fotos/ZT01AK10000N0_6.jpg;https://pruebas.truccoshop.com/fotos/ZT01AK10000N0_7.jpg;https://pruebas.truccoshop.com/fotos/ZT01AK10000N0_8.jpg;https://pruebas.truccoshop.com/fotos/ZT01AK10000N0_9.jpg";FALDA DE PUNTO GEOMÉTRICA;1
ZT01AM10000A2;1;FALDA TWEED   ;NEW IN, FALDAS;"https://pruebas.truccoshop.com/fotos/ZT01AM10000A2_1.jpg;https://pruebas.truccoshop.com/fotos/ZT01AM10000A2_2.jpg;https://pruebas.truccoshop.com/fotos/ZT01AM10000A2_3.jpg;https://pruebas.truccoshop.com/fotos/ZT01AM10000A2_4.jpg;https://pruebas.truccoshop.com/fotos/ZT01AM10000A2_5.jpg;https://pruebas.truccoshop.com/fotos/ZT01AM10000A2_6.jpg;https://pruebas.truccoshop.com/fotos/ZT01AM10000A2_7.jpg;https://pruebas.truccoshop.com/fotos/ZT01AM10000A2_8.jpg;https://pruebas.truccoshop.com/fotos/ZT01AM10000A2_9.jpg";FALDA TWEED   ;1
ZT01CL10000N0;1;FALDA DENIM;NEW IN, FALDAS;"https://pruebas.truccoshop.com/fotos/ZT01CL10000N0_1.jpg;https://pruebas.truccoshop.com/fotos/ZT01CL10000N0_2.jpg;https://pruebas.truccoshop.com/fotos/ZT01CL10000N0_3.jpg;https://pruebas.truccoshop.com/fotos/ZT01CL10000N0_4.jpg;https://pruebas.truccoshop.com/fotos/ZT01CL10000N0_5.jpg;https://pruebas.truccoshop.com/fotos/ZT01CL10000N0_6.jpg;https://pruebas.truccoshop.com/fotos/ZT01CL10000N0_7.jpg;https://pruebas.truccoshop.com/fotos/ZT01CL10000N0_8.jpg;https://pruebas.truccoshop.com/fotos/ZT01CL10000N0_9.jpg";FALDA DENIM;1
ZT02AX10000G1;1;PANTALÓN DENIM ANCHO;NEW IN, PANTALONES;"https://pruebas.truccoshop.com/fotos/ZT02AX10000G1_1.jpg;https://pruebas.truccoshop.com/fotos/ZT02AX10000G1_2.jpg;https://pruebas.truccoshop.com/fotos/ZT02AX10000G1_3.jpg;https://pruebas.truccoshop.com/fotos/ZT02AX10000G1_4.jpg;https://pruebas.truccoshop.com/fotos/ZT02AX10000G1_5.jpg;https://pruebas.truccoshop.com/fotos/ZT02AX10000G1_6.jpg;https://pruebas.truccoshop.com/fotos/ZT02AX10000G1_7.jpg;https://pruebas.truccoshop.com/fotos/ZT02AX10000G1_8.jpg;https://pruebas.truccoshop.com/fotos/ZT02AX10000G1_9.jpg";PANTALÓN DENIM ANCHO;1
ZT02BT10000Z0;1;PANTALÓN PALAZZO ESTAMPADO;NEW IN, PANTALONES;"https://pruebas.truccoshop.com/fotos/ZT02BT10000Z0_1.jpg;https://pruebas.truccoshop.com/fotos/ZT02BT10000Z0_2.jpg;https://pruebas.truccoshop.com/fotos/ZT02BT10000Z0_3.jpg;https://pruebas.truccoshop.com/fotos/ZT02BT10000Z0_4.jpg;https://pruebas.truccoshop.com/fotos/ZT02BT10000Z0_5.jpg;https://pruebas.truccoshop.com/fotos/ZT02BT10000Z0_6.jpg;https://pruebas.truccoshop.com/fotos/ZT02BT10000Z0_7.jpg;https://pruebas.truccoshop.com/fotos/ZT02BT10000Z0_8.jpg;https://pruebas.truccoshop.com/fotos/ZT02BT10000Z0_9.jpg";PANTALÓN PALAZZO ESTAMPADO;1
ZT03BV10000A3;1;CAMISA JACQUARD SIN  MANGAS;NEW IN, CAMISAS;"https://pruebas.truccoshop.com/fotos/ZT03BV10000A3_1.jpg;https://pruebas.truccoshop.com/fotos/ZT03BV10000A3_2.jpg;https://pruebas.truccoshop.com/fotos/ZT03BV10000A3_3.jpg;https://pruebas.truccoshop.com/fotos/ZT03BV10000A3_4.jpg;https://pruebas.truccoshop.com/fotos/ZT03BV10000A3_5.jpg;https://pruebas.truccoshop.com/fotos/ZT03BV10000A3_6.jpg;https://pruebas.truccoshop.com/fotos/ZT03BV10000A3_7.jpg;https://pruebas.truccoshop.com/fotos/ZT03BV10000A3_8.jpg;https://pruebas.truccoshop.com/fotos/ZT03BV10000A3_9.jpg";CAMISA JACQUARD SIN  MANGAS;1
ZT03BV10000G1;1;CAMISA JACQUARD SIN  MANGAS;NEW IN, CAMISAS;"https://pruebas.truccoshop.com/fotos/ZT03BV10000G1_1.jpg;https://pruebas.truccoshop.com/fotos/ZT03BV10000G1_2.jpg;https://pruebas.truccoshop.com/fotos/ZT03BV10000G1_3.jpg;https://pruebas.truccoshop.com/fotos/ZT03BV10000G1_4.jpg;https://pruebas.truccoshop.com/fotos/ZT03BV10000G1_5.jpg;https://pruebas.truccoshop.com/fotos/ZT03BV10000G1_6.jpg;https://pruebas.truccoshop.com/fotos/ZT03BV10000G1_7.jpg;https://pruebas.truccoshop.com/fotos/ZT03BV10000G1_8.jpg;https://pruebas.truccoshop.com/fotos/ZT03BV10000G1_9.jpg";CAMISA JACQUARD SIN  MANGAS;1
ZT04AF10000V2;1;CHAQUETA PIQUÉ;NEW IN,CHAQUETAS;"https://pruebas.truccoshop.com/fotos/ZT04AF10000V2_1.jpg;https://pruebas.truccoshop.com/fotos/ZT04AF10000V2_2.jpg;https://pruebas.truccoshop.com/fotos/ZT04AF10000V2_3.jpg;https://pruebas.truccoshop.com/fotos/ZT04AF10000V2_4.jpg;https://pruebas.truccoshop.com/fotos/ZT04AF10000V2_5.jpg;https://pruebas.truccoshop.com/fotos/ZT04AF10000V2_6.jpg;https://pruebas.truccoshop.com/fotos/ZT04AF10000V2_7.jpg;https://pruebas.truccoshop.com/fotos/ZT04AF10000V2_8.jpg;https://pruebas.truccoshop.com/fotos/ZT04AF10000V2_9.jpg";CHAQUETA PIQUÉ;1
ZT04AJ10000A2;1;CHAQUETA TWEED;NEW IN,CHAQUETAS;"https://pruebas.truccoshop.com/fotos/ZT04AJ10000A2_1.jpg;https://pruebas.truccoshop.com/fotos/ZT04AJ10000A2_2.jpg;https://pruebas.truccoshop.com/fotos/ZT04AJ10000A2_3.jpg;https://pruebas.truccoshop.com/fotos/ZT04AJ10000A2_4.jpg;https://pruebas.truccoshop.com/fotos/ZT04AJ10000A2_5.jpg;https://pruebas.truccoshop.com/fotos/ZT04AJ10000A2_6.jpg;https://pruebas.truccoshop.com/fotos/ZT04AJ10000A2_7.jpg;https://pruebas.truccoshop.com/fotos/ZT04AJ10000A2_8.jpg;https://pruebas.truccoshop.com/fotos/ZT04AJ10000A2_9.jpg";CHAQUETA TWEED;1
ZT06AV10000Z0;1;CAMISETA COMBINADA;NEW IN,CAMISETAS;"https://pruebas.truccoshop.com/fotos/ZT06AV10000Z0_1.jpg;https://pruebas.truccoshop.com/fotos/ZT06AV10000Z0_2.jpg;https://pruebas.truccoshop.com/fotos/ZT06AV10000Z0_3.jpg;https://pruebas.truccoshop.com/fotos/ZT06AV10000Z0_4.jpg;https://pruebas.truccoshop.com/fotos/ZT06AV10000Z0_5.jpg;https://pruebas.truccoshop.com/fotos/ZT06AV10000Z0_6.jpg;https://pruebas.truccoshop.com/fotos/ZT06AV10000Z0_7.jpg;https://pruebas.truccoshop.com/fotos/ZT06AV10000Z0_8.jpg;https://pruebas.truccoshop.com/fotos/ZT06AV10000Z0_9.jpg";CAMISETA COMBINADA;1
ZT06BQ10000Z0;1;CAMISETA COMBINADA;NEW IN,CAMISETAS;"https://pruebas.truccoshop.com/fotos/ZT06BQ10000Z0_1.jpg;https://pruebas.truccoshop.com/fotos/ZT06BQ10000Z0_2.jpg;https://pruebas.truccoshop.com/fotos/ZT06BQ10000Z0_3.jpg;https://pruebas.truccoshop.com/fotos/ZT06BQ10000Z0_4.jpg;https://pruebas.truccoshop.com/fotos/ZT06BQ10000Z0_5.jpg;https://pruebas.truccoshop.com/fotos/ZT06BQ10000Z0_6.jpg;https://pruebas.truccoshop.com/fotos/ZT06BQ10000Z0_7.jpg;https://pruebas.truccoshop.com/fotos/ZT06BQ10000Z0_8.jpg;https://pruebas.truccoshop.com/fotos/ZT06BQ10000Z0_9.jpg";CAMISETA COMBINADA;1
ZT06BS10000Z0;1;CAMISETA COMBINADA;NEW IN,CAMISETAS;"https://pruebas.truccoshop.com/fotos/ZT06BS10000Z0_1.jpg;https://pruebas.truccoshop.com/fotos/ZT06BS10000Z0_2.jpg;https://pruebas.truccoshop.com/fotos/ZT06BS10000Z0_3.jpg;https://pruebas.truccoshop.com/fotos/ZT06BS10000Z0_4.jpg;https://pruebas.truccoshop.com/fotos/ZT06BS10000Z0_5.jpg;https://pruebas.truccoshop.com/fotos/ZT06BS10000Z0_6.jpg;https://pruebas.truccoshop.com/fotos/ZT06BS10000Z0_7.jpg;https://pruebas.truccoshop.com/fotos/ZT06BS10000Z0_8.jpg;https://pruebas.truccoshop.com/fotos/ZT06BS10000Z0_9.jpg";CAMISETA COMBINADA;1
ZT06BZ10000Z0;1;CAMISETA COMBINADA;NEW IN,CAMISETAS;"https://pruebas.truccoshop.com/fotos/ZT06BZ10000Z0_1.jpg;https://pruebas.truccoshop.com/fotos/ZT06BZ10000Z0_2.jpg;https://pruebas.truccoshop.com/fotos/ZT06BZ10000Z0_3.jpg;https://pruebas.truccoshop.com/fotos/ZT06BZ10000Z0_4.jpg;https://pruebas.truccoshop.com/fotos/ZT06BZ10000Z0_5.jpg;https://pruebas.truccoshop.com/fotos/ZT06BZ10000Z0_6.jpg;https://pruebas.truccoshop.com/fotos/ZT06BZ10000Z0_7.jpg;https://pruebas.truccoshop.com/fotos/ZT06BZ10000Z0_8.jpg;https://pruebas.truccoshop.com/fotos/ZT06BZ10000Z0_9.jpg";CAMISETA COMBINADA;1
ZT15AK10000V2;1;CAMISETA PIQUÉ;NEW IN,CAMISETAS;"https://pruebas.truccoshop.com/fotos/ZT15AK10000V2_1.jpg;https://pruebas.truccoshop.com/fotos/ZT15AK10000V2_2.jpg;https://pruebas.truccoshop.com/fotos/ZT15AK10000V2_3.jpg;https://pruebas.truccoshop.com/fotos/ZT15AK10000V2_4.jpg;https://pruebas.truccoshop.com/fotos/ZT15AK10000V2_5.jpg;https://pruebas.truccoshop.com/fotos/ZT15AK10000V2_6.jpg;https://pruebas.truccoshop.com/fotos/ZT15AK10000V2_7.jpg;https://pruebas.truccoshop.com/fotos/ZT15AK10000V2_8.jpg;https://pruebas.truccoshop.com/fotos/ZT15AK10000V2_9.jpg";CAMISETA PIQUÉ;1
ZT15BS10000B1;1;JERSEY CANALÉ;NEW IN,Jerseys;"https://pruebas.truccoshop.com/fotos/ZT15BS10000B1_1.jpg;https://pruebas.truccoshop.com/fotos/ZT15BS10000B1_2.jpg;https://pruebas.truccoshop.com/fotos/ZT15BS10000B1_3.jpg;https://pruebas.truccoshop.com/fotos/ZT15BS10000B1_4.jpg;https://pruebas.truccoshop.com/fotos/ZT15BS10000B1_5.jpg;https://pruebas.truccoshop.com/fotos/ZT15BS10000B1_6.jpg;https://pruebas.truccoshop.com/fotos/ZT15BS10000B1_7.jpg;https://pruebas.truccoshop.com/fotos/ZT15BS10000B1_8.jpg;https://pruebas.truccoshop.com/fotos/ZT15BS10000B1_9.jpg";JERSEY CANALÉ;1
ZT16AG10000Z0;1;SUDADERA JACQUARD;NEW IN,Comfort capsule;"https://pruebas.truccoshop.com/fotos/ZT16AG10000Z0_1.jpg;https://pruebas.truccoshop.com/fotos/ZT16AG10000Z0_2.jpg;https://pruebas.truccoshop.com/fotos/ZT16AG10000Z0_3.jpg;https://pruebas.truccoshop.com/fotos/ZT16AG10000Z0_4.jpg;https://pruebas.truccoshop.com/fotos/ZT16AG10000Z0_5.jpg;https://pruebas.truccoshop.com/fotos/ZT16AG10000Z0_6.jpg;https://pruebas.truccoshop.com/fotos/ZT16AG10000Z0_7.jpg;https://pruebas.truccoshop.com/fotos/ZT16AG10000Z0_8.jpg;https://pruebas.truccoshop.com/fotos/ZT16AG10000Z0_9.jpg";SUDADERA JACQUARD;1
ZT16AL10000B1;1;JERSEY COLOR BLOCK;NEW IN,Jerseys;"https://pruebas.truccoshop.com/fotos/ZT16AL10000B1_1.jpg;https://pruebas.truccoshop.com/fotos/ZT16AL10000B1_2.jpg;https://pruebas.truccoshop.com/fotos/ZT16AL10000B1_3.jpg;https://pruebas.truccoshop.com/fotos/ZT16AL10000B1_4.jpg;https://pruebas.truccoshop.com/fotos/ZT16AL10000B1_5.jpg;https://pruebas.truccoshop.com/fotos/ZT16AL10000B1_6.jpg;https://pruebas.truccoshop.com/fotos/ZT16AL10000B1_7.jpg;https://pruebas.truccoshop.com/fotos/ZT16AL10000B1_8.jpg;https://pruebas.truccoshop.com/fotos/ZT16AL10000B1_9.jpg";JERSEY COLOR BLOCK;1
ZT16AS10000N0;1;JERSEY BICOLOR;NEW IN,Jerseys;"https://pruebas.truccoshop.com/fotos/ZT16AS10000N0_1.jpg;https://pruebas.truccoshop.com/fotos/ZT16AS10000N0_2.jpg;https://pruebas.truccoshop.com/fotos/ZT16AS10000N0_3.jpg;https://pruebas.truccoshop.com/fotos/ZT16AS10000N0_4.jpg;https://pruebas.truccoshop.com/fotos/ZT16AS10000N0_5.jpg;https://pruebas.truccoshop.com/fotos/ZT16AS10000N0_6.jpg;https://pruebas.truccoshop.com/fotos/ZT16AS10000N0_7.jpg;https://pruebas.truccoshop.com/fotos/ZT16AS10000N0_8.jpg;https://pruebas.truccoshop.com/fotos/ZT16AS10000N0_9.jpg";JERSEY BICOLOR;1
ZT16AT10000A3;1;SUDADERA JACQUARD;NEW IN,Comfort capsule;"https://pruebas.truccoshop.com/fotos/ZT16AT10000A3_1.jpg;https://pruebas.truccoshop.com/fotos/ZT16AT10000A3_2.jpg;https://pruebas.truccoshop.com/fotos/ZT16AT10000A3_3.jpg;https://pruebas.truccoshop.com/fotos/ZT16AT10000A3_4.jpg;https://pruebas.truccoshop.com/fotos/ZT16AT10000A3_5.jpg;https://pruebas.truccoshop.com/fotos/ZT16AT10000A3_6.jpg;https://pruebas.truccoshop.com/fotos/ZT16AT10000A3_7.jpg;https://pruebas.truccoshop.com/fotos/ZT16AT10000A3_8.jpg;https://pruebas.truccoshop.com/fotos/ZT16AT10000A3_9.jpg";SUDADERA JACQUARD;1
ZT17AB10000B1;1;CHAQUETA PUNTO ARROZ;NEW IN,CHAQUETAS;"https://pruebas.truccoshop.com/fotos/ZT17AB10000B1_1.jpg;https://pruebas.truccoshop.com/fotos/ZT17AB10000B1_2.jpg;https://pruebas.truccoshop.com/fotos/ZT17AB10000B1_3.jpg;https://pruebas.truccoshop.com/fotos/ZT17AB10000B1_4.jpg;https://pruebas.truccoshop.com/fotos/ZT17AB10000B1_5.jpg;https://pruebas.truccoshop.com/fotos/ZT17AB10000B1_6.jpg;https://pruebas.truccoshop.com/fotos/ZT17AB10000B1_7.jpg;https://pruebas.truccoshop.com/fotos/ZT17AB10000B1_8.jpg;https://pruebas.truccoshop.com/fotos/ZT17AB10000B1_9.jpg";CHAQUETA PUNTO ARROZ;1
ZT17AK10000G1;1;CHAQUETA MANGA FRANCESA;NEW IN,CHAQUETAS;"https://pruebas.truccoshop.com/fotos/ZT17AK10000G1_1.jpg;https://pruebas.truccoshop.com/fotos/ZT17AK10000G1_2.jpg;https://pruebas.truccoshop.com/fotos/ZT17AK10000G1_3.jpg;https://pruebas.truccoshop.com/fotos/ZT17AK10000G1_4.jpg;https://pruebas.truccoshop.com/fotos/ZT17AK10000G1_5.jpg;https://pruebas.truccoshop.com/fotos/ZT17AK10000G1_6.jpg;https://pruebas.truccoshop.com/fotos/ZT17AK10000G1_7.jpg;https://pruebas.truccoshop.com/fotos/ZT17AK10000G1_8.jpg;https://pruebas.truccoshop.com/fotos/ZT17AK10000G1_9.jpg";CHAQUETA MANGA FRANCESA;1
ZT17AK10000Y2;1;CHAQUETA MANGA FRANCESA;NEW IN,CHAQUETAS;"https://pruebas.truccoshop.com/fotos/ZT17AK10000Y2_1.jpg;https://pruebas.truccoshop.com/fotos/ZT17AK10000Y2_2.jpg;https://pruebas.truccoshop.com/fotos/ZT17AK10000Y2_3.jpg;https://pruebas.truccoshop.com/fotos/ZT17AK10000Y2_4.jpg;https://pruebas.truccoshop.com/fotos/ZT17AK10000Y2_5.jpg;https://pruebas.truccoshop.com/fotos/ZT17AK10000Y2_6.jpg;https://pruebas.truccoshop.com/fotos/ZT17AK10000Y2_7.jpg;https://pruebas.truccoshop.com/fotos/ZT17AK10000Y2_8.jpg;https://pruebas.truccoshop.com/fotos/ZT17AK10000Y2_9.jpg";CHAQUETA MANGA FRANCESA;1
ZT17AO10000R2;1;CHAQUETA DE PUNTO;NEW IN,CHAQUETAS;"https://pruebas.truccoshop.com/fotos/ZT17AO10000R2_1.jpg;https://pruebas.truccoshop.com/fotos/ZT17AO10000R2_2.jpg;https://pruebas.truccoshop.com/fotos/ZT17AO10000R2_3.jpg;https://pruebas.truccoshop.com/fotos/ZT17AO10000R2_4.jpg;https://pruebas.truccoshop.com/fotos/ZT17AO10000R2_5.jpg;https://pruebas.truccoshop.com/fotos/ZT17AO10000R2_6.jpg;https://pruebas.truccoshop.com/fotos/ZT17AO10000R2_7.jpg;https://pruebas.truccoshop.com/fotos/ZT17AO10000R2_8.jpg;https://pruebas.truccoshop.com/fotos/ZT17AO10000R2_9.jpg";CHAQUETA DE PUNTO;1
ZT17AO10000A3;1;CHAQUETA DE PUNTO;NEW IN,CHAQUETAS;"https://pruebas.truccoshop.com/fotos/ZT17AO10000A3_1.jpg;https://pruebas.truccoshop.com/fotos/ZT17AO10000A3_2.jpg;https://pruebas.truccoshop.com/fotos/ZT17AO10000A3_3.jpg;https://pruebas.truccoshop.com/fotos/ZT17AO10000A3_4.jpg;https://pruebas.truccoshop.com/fotos/ZT17AO10000A3_5.jpg;https://pruebas.truccoshop.com/fotos/ZT17AO10000A3_6.jpg;https://pruebas.truccoshop.com/fotos/ZT17AO10000A3_7.jpg;https://pruebas.truccoshop.com/fotos/ZT17AO10000A3_8.jpg;https://pruebas.truccoshop.com/fotos/ZT17AO10000A3_9.jpg";CHAQUETA DE PUNTO;1
ZT20BE10000N0;1;VESTIDO JACQUARD;NEW IN,VESTIDOS;"https://pruebas.truccoshop.com/fotos/ZT20BE10000N0_1.jpg;https://pruebas.truccoshop.com/fotos/ZT20BE10000N0_2.jpg;https://pruebas.truccoshop.com/fotos/ZT20BE10000N0_3.jpg;https://pruebas.truccoshop.com/fotos/ZT20BE10000N0_4.jpg;https://pruebas.truccoshop.com/fotos/ZT20BE10000N0_5.jpg;https://pruebas.truccoshop.com/fotos/ZT20BE10000N0_6.jpg;https://pruebas.truccoshop.com/fotos/ZT20BE10000N0_7.jpg;https://pruebas.truccoshop.com/fotos/ZT20BE10000N0_8.jpg;https://pruebas.truccoshop.com/fotos/ZT20BE10000N0_9.jpg";VESTIDO JACQUARD;1
ZT20BM10000N0;1;VESTIDO PUNTO BICOLOR;NEW IN,VESTIDOS;"https://pruebas.truccoshop.com/fotos/ZT20BM10000N0_1.jpg;https://pruebas.truccoshop.com/fotos/ZT20BM10000N0_2.jpg;https://pruebas.truccoshop.com/fotos/ZT20BM10000N0_3.jpg;https://pruebas.truccoshop.com/fotos/ZT20BM10000N0_4.jpg;https://pruebas.truccoshop.com/fotos/ZT20BM10000N0_5.jpg;https://pruebas.truccoshop.com/fotos/ZT20BM10000N0_6.jpg;https://pruebas.truccoshop.com/fotos/ZT20BM10000N0_7.jpg;https://pruebas.truccoshop.com/fotos/ZT20BM10000N0_8.jpg;https://pruebas.truccoshop.com/fotos/ZT20BM10000N0_9.jpg";VESTIDO PUNTO BICOLOR;1
ZT20BR10000N0;1;VESTIDO MANGA CORTA;NEW IN,VESTIDOS;"https://pruebas.truccoshop.com/fotos/ZT20BR10000N0_1.jpg;https://pruebas.truccoshop.com/fotos/ZT20BR10000N0_2.jpg;https://pruebas.truccoshop.com/fotos/ZT20BR10000N0_3.jpg;https://pruebas.truccoshop.com/fotos/ZT20BR10000N0_4.jpg;https://pruebas.truccoshop.com/fotos/ZT20BR10000N0_5.jpg;https://pruebas.truccoshop.com/fotos/ZT20BR10000N0_6.jpg;https://pruebas.truccoshop.com/fotos/ZT20BR10000N0_7.jpg;https://pruebas.truccoshop.com/fotos/ZT20BR10000N0_8.jpg;https://pruebas.truccoshop.com/fotos/ZT20BR10000N0_9.jpg";VESTIDO MANGA CORTA;1
XT02DQ10000V2;1;PANTALÓN ESTAMPADO;NEW IN, PANTALONES;"https://pruebas.truccoshop.com/fotos/XT02DQ10000V2_1.jpg;https://pruebas.truccoshop.com/fotos/XT02DQ10000V2_2.jpg;https://pruebas.truccoshop.com/fotos/XT02DQ10000V2_3.jpg;https://pruebas.truccoshop.com/fotos/XT02DQ10000V2_4.jpg;https://pruebas.truccoshop.com/fotos/XT02DQ10000V2_5.jpg;https://pruebas.truccoshop.com/fotos/XT02DQ10000V2_6.jpg;https://pruebas.truccoshop.com/fotos/XT02DQ10000V2_7.jpg;https://pruebas.truccoshop.com/fotos/XT02DQ10000V2_8.jpg;https://pruebas.truccoshop.com/fotos/XT02DQ10000V2_9.jpg";PANTALÓN ESTAMPADO;1
ZT01AJ10000A3;1;FALDA MIDI DE PUNTO;NEW IN, FALDAS;"https://pruebas.truccoshop.com/fotos/ZT01AJ10000A3_1.jpg;https://pruebas.truccoshop.com/fotos/ZT01AJ10000A3_2.jpg;https://pruebas.truccoshop.com/fotos/ZT01AJ10000A3_3.jpg;https://pruebas.truccoshop.com/fotos/ZT01AJ10000A3_4.jpg;https://pruebas.truccoshop.com/fotos/ZT01AJ10000A3_5.jpg;https://pruebas.truccoshop.com/fotos/ZT01AJ10000A3_6.jpg;https://pruebas.truccoshop.com/fotos/ZT01AJ10000A3_7.jpg;https://pruebas.truccoshop.com/fotos/ZT01AJ10000A3_8.jpg;https://pruebas.truccoshop.com/fotos/ZT01AJ10000A3_9.jpg";FALDA MIDI DE PUNTO;1
ZT02BB10000A3;1;PANTALÓN 5 BOLSILLOS;NEW IN, PANTALONES;"https://pruebas.truccoshop.com/fotos/ZT02BB10000A3_1.jpg;https://pruebas.truccoshop.com/fotos/ZT02BB10000A3_2.jpg;https://pruebas.truccoshop.com/fotos/ZT02BB10000A3_3.jpg;https://pruebas.truccoshop.com/fotos/ZT02BB10000A3_4.jpg;https://pruebas.truccoshop.com/fotos/ZT02BB10000A3_5.jpg;https://pruebas.truccoshop.com/fotos/ZT02BB10000A3_6.jpg;https://pruebas.truccoshop.com/fotos/ZT02BB10000A3_7.jpg;https://pruebas.truccoshop.com/fotos/ZT02BB10000A3_8.jpg;https://pruebas.truccoshop.com/fotos/ZT02BB10000A3_9.jpg";PANTALÓN 5 BOLSILLOS;1
ZT03BU10000V2;1;CAMISA ESTAMPADA;NEW IN, CAMISAS;"https://pruebas.truccoshop.com/fotos/ZT03BU10000V2_1.jpg;https://pruebas.truccoshop.com/fotos/ZT03BU10000V2_2.jpg;https://pruebas.truccoshop.com/fotos/ZT03BU10000V2_3.jpg;https://pruebas.truccoshop.com/fotos/ZT03BU10000V2_4.jpg;https://pruebas.truccoshop.com/fotos/ZT03BU10000V2_5.jpg;https://pruebas.truccoshop.com/fotos/ZT03BU10000V2_6.jpg;https://pruebas.truccoshop.com/fotos/ZT03BU10000V2_7.jpg;https://pruebas.truccoshop.com/fotos/ZT03BU10000V2_8.jpg;https://pruebas.truccoshop.com/fotos/ZT03BU10000V2_9.jpg";CAMISA ESTAMPADA;1
ZT04AS10000A3;1;CHAQUETA CRUZADA;NEW IN,CHAQUETAS;"https://pruebas.truccoshop.com/fotos/ZT04AS10000A3_1.jpg;https://pruebas.truccoshop.com/fotos/ZT04AS10000A3_2.jpg;https://pruebas.truccoshop.com/fotos/ZT04AS10000A3_3.jpg;https://pruebas.truccoshop.com/fotos/ZT04AS10000A3_4.jpg;https://pruebas.truccoshop.com/fotos/ZT04AS10000A3_5.jpg;https://pruebas.truccoshop.com/fotos/ZT04AS10000A3_6.jpg;https://pruebas.truccoshop.com/fotos/ZT04AS10000A3_7.jpg;https://pruebas.truccoshop.com/fotos/ZT04AS10000A3_8.jpg;https://pruebas.truccoshop.com/fotos/ZT04AS10000A3_9.jpg";CHAQUETA CRUZADA;1
ZT06AY10000Z0;1;CAMISETA COMBINADA;NEW IN,CAMISETAS;"https://pruebas.truccoshop.com/fotos/ZT06AY10000Z0_1.jpg;https://pruebas.truccoshop.com/fotos/ZT06AY10000Z0_2.jpg;https://pruebas.truccoshop.com/fotos/ZT06AY10000Z0_3.jpg;https://pruebas.truccoshop.com/fotos/ZT06AY10000Z0_4.jpg;https://pruebas.truccoshop.com/fotos/ZT06AY10000Z0_5.jpg;https://pruebas.truccoshop.com/fotos/ZT06AY10000Z0_6.jpg;https://pruebas.truccoshop.com/fotos/ZT06AY10000Z0_7.jpg;https://pruebas.truccoshop.com/fotos/ZT06AY10000Z0_8.jpg;https://pruebas.truccoshop.com/fotos/ZT06AY10000Z0_9.jpg";CAMISETA COMBINADA;1
ZT15CC10000Y2;1;CAMISETA PIQUÉ;NEW IN,CAMISETAS;"https://pruebas.truccoshop.com/fotos/ZT15CC10000Y2_1.jpg;https://pruebas.truccoshop.com/fotos/ZT15CC10000Y2_2.jpg;https://pruebas.truccoshop.com/fotos/ZT15CC10000Y2_3.jpg;https://pruebas.truccoshop.com/fotos/ZT15CC10000Y2_4.jpg;https://pruebas.truccoshop.com/fotos/ZT15CC10000Y2_5.jpg;https://pruebas.truccoshop.com/fotos/ZT15CC10000Y2_6.jpg;https://pruebas.truccoshop.com/fotos/ZT15CC10000Y2_7.jpg;https://pruebas.truccoshop.com/fotos/ZT15CC10000Y2_8.jpg;https://pruebas.truccoshop.com/fotos/ZT15CC10000Y2_9.jpg";CAMISETA PIQUÉ;1