Nombre empresa
{input_1605178522}
Titular de la empresa
{input_1605178612}
CIF
{input_1605178653}
Teléfono
{input_1605178676}
Correo electrónico
{input_1605178716}
Modelo 036
{input_1605178778}
Comentarios
{textarea_1605178819}

{shop_name}
