NOMBRE
{input_1600874277}
APELLIDOS
{input_1600874353}
DIRECCIÓN DE EMAIL
{input_1600874397}
TELÉFONO MÓVIL
{input_1600874451}
FECHA DE NACIMIENTO
{datepicker_1600874498}
DIRECCIÓN
{input_1600874533}
CIUDAD
{input_1600874802}
PROVINCIA
{input_1600874830}
ZIP
{input_1600874920}
PAÍS
{selectcountry_1600874970}
IDIOMAS
{input_1600875008}
PUESTO DESEADO
{select_1600875059}
¿EN QUÉ PROVINCIA?
{input_1600875202}
CARNET DE CONDUCIR
{select_1600875256}
VEHÍCULO PROPIO
{select_1600875307}
PERMISO DE TRABAJO
{selectcountry_1600875514}
EXPERIENCIA EN TIENDAS
{select_1600875551}
TIEMPO DE EXPERIENCIA
{input_1600875622}
CV
{fileupload_1600875699}

{shop_name}
