





TIPO DE INCIDENCIA
{select_1610382439}


País
{selectcountry_1610382578}


Asunto
{select_1610382633}


Nombre
{input_1610382711}


Apellidos
{input_1610382748}


CORREO ELECTRÓNICO
{input_1610382828}


CONFIRME CORREO ELECTRÓNICO
{input_1610382859}


Comentario
{textarea_1610382893}





{shop_name}


