


Input
{input_1600874277}
Input
{input_1600874353}
Input
{input_1600874397}
Input
{input_1600874451}
Datepicker
{datepicker_1600874498}
Input
{input_1600874533}
Input
{input_1600874802}
Input
{input_1600874830}
Input
{input_1600874920}
Selectcountry
{selectcountry_1600874970}
Input
{input_1600875008}
Select
{select_1600875059}
Input
{input_1600875202}
Select
{select_1600875256}
Select
{select_1600875307}
Selectcountry
{selectcountry_1600875514}
Select
{select_1600875551}
Input
{input_1600875622}
Fileupload
{fileupload_1600875699}

{shop_name}
