

Select
{select_791734_1600932268}
Input
{input_626145_1600932268}
Input
{input_421568_1600932268}
Selectcountry
{selectcountry_685413_1600932268}
Select
{select_883129_1600932268}
Textarea
{textarea_392931_1600932268}
Input
{input_240135_1600932268}
Input
{input_805565_1600932268}

{shop_name}
